…
    ## `summarise()` has grouped output by 'modal_categ'. You can override using the
    ## `.groups` argument.

``` r
meanGroup
```

    ## # A tibble: 48 × 3
    ## # Groups:   modal_categ [30]
    ##    modal_categ             meanCateg Dataset        
    ##    <chr>                       <dbl> <chr>          
    ##  1 Bird                        0.979 BOSS-2014 (v.2)
    ##  2 Bodypart                    0.795 BOSS-2014 (v.2)
    ##  3 Building infrastructure     0.669 BOSS-2014 (v.2)
    ##  4 Building material           0.596 BOSS-2014 (v.2)
    ##  5 Building material           0.596 BOSS-2010 (v.1)
    ##  6 Canine                      0.806 BOSS-2014 (v.2)
    ##  7 Clothing                    0.848 BOSS-2014 (v.2)
    ##  8 Clothing                    0.848 BOSS-2010 (v.1)
    ##  9 Crustacean                  0.668 BOSS-2014 (v.2)
    ## 10 Crustacean                  0.668 BOSS-2010 (v.1)
    ## # … with 38 more rows
    ## # ℹ Use `print(n = ...)` to see more rows
…
